%A1='dane z dnia 1.'
%dane_d1= importdata('dane-pomiarowe_2019-10-08.csv');
%disp(dane_d1); % code borrowed from youtube



%najwieksza wartosc z ostatniej kolumnu razem z godzina (pierwsza kolumna)
%oraz data (z nazwy pliku)
% na koniec wartosc max z 7 dni razem z godzina i data

fileId = fopen('C:\Users\student\Documents\MATLAB\dane-pomiarowe_2019-10-08.csv')

D1 = textscan(fileId, '%q %q %q %q %q %q', 'Delimiter', ';')

C_time=D1{1}
C1_values=D1{6}

 %for i=2:1:25;
%matrix(C1_value_number)=str2num(C1_values{i})
%end




%fileId = fopen('C:\Users\student\Documents\MATLAB\dane-pomiarowe_2019-10-09.csv')

%D2 = textscan(fileId, '%q %q %q %q %q %q', 'Delimiter', ';')

%fileId = fopen('C:\Users\student\Documents\MATLAB\dane-pomiarowe_2019-10-10.csv')

%D3 = textscan(fileId, '%q %q %q %q %q %q', 'Delimiter', ';')

%fileId = fopen('C:\Users\student\Documents\MATLAB\dane-pomiarowe_2019-10-11.csv')

%D4 = textscan(fileId, '%q %q %q %q %q %q', 'Delimiter', ';')

%fileId = fopen('C:\Users\student\Documents\MATLAB\dane-pomiarowe_2019-10-12.csv')

%D5 = textscan(fileId, '%q %q %q %q %q %q', 'Delimiter', ';')

%fileId = fopen('C:\Users\student\Documents\MATLAB\dane-pomiarowe_2019-10-13.csv')

%D6 = textscan(fileId, '%q %q %q %q %q %q', 'Delimiter', ';')

%fileId = fopen('C:\Users\student\Documents\MATLAB\dane-pomiarowe_2019-10-14.csv')

%D7 = textscan(fileId, '%q %q %q %q %q %q', 'Delimiter', ';')