%A1='dane z dnia 1.'
%dane_d1= importdata('dane-pomiarowe_2019-10-08.csv');
%disp(dane_d1); % code borrowed from youtube



%najwieksza wartosc z ostatniej kolumnu razem z godzina (pierwsza kolumna)
%oraz data (z nazwy pliku)
% na koniec wartosc max z 7 dni razem z godzina i data
%dzialajace prawie-nic:
file1d = fopen('C:\Users\student\Documents\MATLAB\dane-pomiarowe_2019-10-08.csv')

D1 = textscan(file1d, '%q %q %q %q %q %q', 'Delimiter', ';')

C1_time=D1{1}
C1_values=D1{6}
%C1_values_number=[]

for i=2:25
C1_values_number{i-1}=str2num(C1_values{i})
end

M1=cell2mat(C1_values_number)
Max_M1=max(M1(:,1))

%fileId = fopen('C:\Users\student\Documents\MATLAB\dane-pomiarowe_2019-10-09.csv')

%D2 = textscan(fileId, '%q %q %q %q %q %q', 'Delimiter', ';')

%fileId = fopen('C:\Users\student\Documents\MATLAB\dane-pomiarowe_2019-10-10.csv')

%D3 = textscan(fileId, '%q %q %q %q %q %q', 'Delimiter', ';')

%fileId = fopen('C:\Users\student\Documents\MATLAB\dane-pomiarowe_2019-10-11.csv')

%D4 = textscan(fileId, '%q %q %q %q %q %q', 'Delimiter', ';')

%fileId = fopen('C:\Users\student\Documents\MATLAB\dane-pomiarowe_2019-10-12.csv')

%D5 = textscan(fileId, '%q %q %q %q %q %q', 'Delimiter', ';')

%fileId = fopen('C:\Users\student\Documents\MATLAB\dane-pomiarowe_2019-10-13.csv')

%D6 = textscan(fileId, '%q %q %q %q %q %q', 'Delimiter', ';')

%fileId = fopen('C:\Users\student\Documents\MATLAB\dane-pomiarowe_2019-10-14.csv')

%D7 = textscan(fileId, '%q %q %q %q %q %q', 'Delimiter', ';')


%od Julii
%Program in MatLab

%Enter the address of the data file into the auxiliary variables
%pom_1 = 'C:\Users\student\Documents\MATLAB\dane-pomiarowe_2019-10-08.csv'
%pom_2 = 'C:\Users\student\Documents\MATLAB\dane-pomiarowe_2019-10-09.csv'
%pom_3 = 'C:\Users\student\Documents\MATLAB\dane-pomiarowe_2019-10-10.csv'
%pom_4 = 'C:\Users\student\Documents\MATLAB\dane-pomiarowe_2019-10-11.csv'
%pom_5 = 'C:\Users\student\Documents\MATLAB\dane-pomiarowe_2019-10-12.csv'
%pom_6 = 'C:\Users\student\Documents\MATLAB\dane-pomiarowe_2019-10-13.csv'
%pom_7 = 'C:\Users\student\Documents\MATLAB\dane-pomiarowe_2019-10-14.csv'

%Data recovery and a string format accessible to MatLab
%fild_1 = fopen(pom_1)
%C_1 = textscan(fild_1, '%q %q %q %q %q %q ','Delimiter', ';')

%fild_2 = fopen(pom_2)
%C_2 = textscan(fild_2, '%q %q %q %q %q %q ','Delimiter', ';')

%fild_3 = fopen(pom_3)
%C_3 = textscan(fild_3, '%q %q %q %q %q %q ','Delimiter', ';')

%fild_4 = fopen(pom_4)
%C_4 = textscan(fild_4, '%q %q %q %q %q %q ','Delimiter', ';')

%fild_5 = fopen(pom_5)
%C_5 = textscan(fild_5, '%q %q %q %q %q %q ','Delimiter', ';')

%fild_6 = fopen(pom_6)
%C_6 = textscan(fild_6, '%q %q %q %q %q %q ','Delimiter', ';')

%fild_7 = fopen(pom_7)
%C_7 = textscan(fild_7, '%q %q %q %q %q %q ','Delimiter', ';')

%The loop creates a matrix with the necessary data
%for j=2:25
%A(j-1,1)=datenum(strcat('2019-10-08',{' '},cell2mat(C_1{1}(j)))); %Date and time
%A(j-1,2)=str2num(cell2mat(C_1{6}(j))); %Numeric parameter
%A(j-1+24,1)=datenum(strcat('2019-10-09',{' '},cell2mat(C_2{1}(j))));
%A(j-1+24,2)=str2num(cell2mat(C_2{6}(j)));
%A(j-1+48,1)=datenum(strcat('2019-10-10',{' '},cell2mat(C_3{1}(j))));
%A(j-1+48,2)=str2num(cell2mat(C_3{6}(j)));
%A(j-1+72,1)=datenum(strcat('2019-10-11',{' '},cell2mat(C_4{1}(j))));
%A(j-1+72,2)=str2num(cell2mat(C_4{6}(j)));
%A(j-1+96,1)=datenum(strcat('2019-10-12',{' '},cell2mat(C_5{1}(j))));
%A(j-1+96,2)=str2num(cell2mat(C_5{6}(j)));
%A(j-1+120,1)=datenum(strcat('2019-10-13',{' '},cell2mat(C_6{1}(j))));
%A(j-1+120,2)=str2num(cell2mat(C_6{6}(j)));
%A(j-1+144,1)=datenum(strcat('2019-10-14',{' '},cell2mat(C_7{1}(j))));
%A(j-1+144,2)=str2num(cell2mat(C_7{6}(j)));
%end
%B = A(A(1,:) == max(A(1,:)),:)
%t1 = B(1,1)
%data2 = datestr(t1)
%wartosc2=B(1,2)